<?xml version="1.0" encoding="utf-8"?>
<!-- Generator: Adobe Illustrator 23.0.5, SVG Export Plug-In . SVG Version: 6.00 Build 0)  -->
<svg version="1.1" id="Layer_1" xmlns="http://www.w3.org/2000/svg" xmlns:xlink="http://www.w3.org/1999/xlink" x="0px" y="0px"
	 viewBox="0 0 13 19.4" style="enable-background:new 0 0 13 19.4;" xml:space="preserve">
<style type="text/css">
	.st0{fill:none;stroke:#EC472B;stroke-width:3;stroke-linecap:round;}
</style>
<path class="st0" d="M4.1,2l7.4,7.7l-7.4,7.7"/>
</svg>
